…
print(average_net_approval_rate)

## # A tibble: 195 x 10
## # Groups:   year [4]
##     year  week mean_approval SD_approval count_approval t_critical SE_approval
##    <dbl> <dbl>         <dbl>       <dbl>          <int>      <dbl>       <dbl>
##  1  2017     4          1.33        4.66             46       1.68       0.688
##  2  2017     5         -1.84        4.22             67       1.67       0.515
##  3  2017     6         -3.87        5.32             76       1.67       0.610
##  4  2017     7         -6.48        5.62             84       1.66       0.613
##  5  2017     8         -6.11        4.82             87       1.66       0.517
##  6  2017     9         -4.27        4.47             78       1.66       0.506
##  7  2017    10         -3.95        5.42             89       1.66       0.575
##  8  2017    11         -7.88        5.52             85       1.66       0.598
##  9  2017    12         -7.62        6.91             84       1.66       0.754
## 10  2017    13        -11.7         6.93             91       1.66       0.727
## # ... with 185 more rows, and 3 more variables: margin_approval <dbl>,
## #   approval_low <dbl>, approval_high <dbl>
…
